{
    "PSNR": [
        27.581536868916828,
        29.196694120484082,
        30.97216843752012,
        32.838191038033465,
        34.526243918998,
        36.74336336131533,
        38.583851620682324,
        40.55687407174928
    ],
    "MS-SSIM": [
        0.904238926867644,
        0.9317538862427076,
        0.953598457078139,
        0.9697412972648939,
        0.9800635899106661,
        0.987070250014464,
        0.9914737815658251,
        0.994597315788269
    ],
    "bpp": [
        0.13200802273220485,
        0.20966593424479166,
        0.3206312391493055,
        0.47912936740451384,
        0.6694573296440973,
        0.9395955403645836,
        1.2599529690212672,
        1.6609971788194444
    ],
    "quality-lmb": [
        [
            1,
            0.0018
        ],
        [
            2,
            0.0035
        ],
        [
            3,
            0.0067
        ],
        [
            4,
            0.013
        ],
        [
            5,
            0.025
        ],
        [
            6,
            0.0483
        ],
        [
            7,
            0.0932
        ],
        [
            8,
            0.18
        ]
    ]
}