{
    "PSNR": [
        29.736931762001277,
        31.036475975139084,
        32.44863691935204,
        33.70308085902896,
        35.080762483058734,
        36.771724833055394
    ],
    "MS-SSIM": [
        0.9262605818306527,
        0.9444012351152373,
        0.9588234918873485,
        0.9688188768014675,
        0.9770191951495845,
        0.9831618186904163
    ],
    "bpp": [
        0.09789838795102741,
        0.1560029337762509,
        0.24221169087315444,
        0.37005816330980984,
        0.5428531622674103,
        0.8024984539658682
    ],
    "quality-lmb": [
        [
            1,
            0.0018
        ],
        [
            2,
            0.0035
        ],
        [
            3,
            0.0067
        ],
        [
            4,
            0.013
        ],
        [
            5,
            0.025
        ],
        [
            6,
            0.0483
        ]
    ]
}